2018-04-16T17:39:10.088	 bubbleSort;
2018-04-16T17:39:56.053	 bubbleSort;
2018-04-16T17:44:10.576	 bubbleSort;
2018-04-16T17:44:40.741	 bubbleSort;
2018-04-17T12:52:11.945	 bubbleSort;
2018-04-17T12:58:24.703	 bubbleSort;
2018-04-17T14:25:57.792	 bubbleSort;
2018-04-17T14:27:14.426	 bubbleSort;
2018-04-17T14:32:40.856	 bubbleSort;
2018-04-17T14:38:27.866	 bubbleSort;
2018-04-17T14:55:30.970	 addElement	 param = 32018-04-17T14:55:30.970	 addElement	 param = 52018-04-17T14:55:30.970	 addElement	 param = 132018-04-17T14:55:30.970	 bubbleSort;
2018-04-17T14:56:56.550	 addElement	 param = 13
2018-04-17T14:56:56.550	 bubbleSort;
2018-04-17T15:12:50.440	 addElement	 param = 2
2018-04-17T15:12:50.440	 doubleTheArray
2018-04-17T15:12:50.440	 countingOfZeroElements	
2018-04-17T15:12:50.440	 printArray	
2018-04-17T15:12:50.440	 changeElementByIndex	 param = index: [1]; new element: [3]
2018-04-17T15:12:50.440	 printArray	
2018-04-17T15:12:50.440	 increaseArray	 param = 2
2018-04-17T15:12:50.440	 printArray	
2018-04-17T15:12:50.440	 reductionArray	 param = 2
2018-04-17T15:12:50.440	 printArray	
2018-04-17T15:12:50.440	 printArray	
2018-04-17T15:12:50.440	 printArrayReverse	
2018-04-17T15:12:50.440	 bubbleSort;
2018-04-17T15:12:50.440	 printArray	
2018-04-17T15:12:50.440	 addArray	 param = 5
2018-04-17T15:12:50.440	 countingOfZeroElements	
2018-04-17T15:12:50.440	 increaseArray	 param = 5
2018-04-17T15:12:50.440	 printArray	
2018-04-17T15:12:50.440	 removeDuplicates	
2018-04-17T15:12:50.440	 bubbleSort;
2018-04-17T15:12:50.440	 getCountingUniqueValue
2018-04-17T15:12:50.440	 printArray	
2018-04-17T15:12:50.440	 deleteElementByIndex	 param = 0
2018-04-17T15:12:50.440	 printArray	
2018-04-17T15:12:50.440	 printArray	
2018-04-17T15:12:50.440	 changeElementByIndex	 param = index: [1]; new element: [5]
2018-04-17T15:12:50.440	 printArray	
2018-04-17T15:12:50.440	 removeDuplicates2	
2018-04-17T15:12:50.440	 printArray	
2018-04-17T17:03:39.175	 addElement	 param = 2;
2018-04-17T17:03:39.175	 doubleTheArray;
2018-04-17T17:03:39.175	 countingOfZeroElements;	
2018-04-17T17:03:39.175	 printArray;	
2018-04-17T17:03:39.175	 bubbleSort;
2018-04-17T17:03:39.175	 printArray;	
2018-04-17T17:06:59.824	 addElement	 param = 2;
2018-04-17T17:06:59.824	 doubleTheArray;
2018-04-17T17:06:59.824	 countingOfZeroElements;	
2018-04-17T17:06:59.824	 printArray;	
2018-04-17T17:06:59.824	 bubbleSort;
2018-04-17T17:06:59.824	 printArray;	
2018-04-17T17:20:52.789	 addElement	 param = 13;
2018-04-17T17:20:52.789	 doubleTheArray;
2018-04-17T17:20:52.789	 countingOfZeroElements;	
2018-04-17T17:20:52.789	 printArray;	
2018-04-17T17:20:52.789	 addElement	 param = 25;
2018-04-17T17:20:52.789	 doubleTheArray;
2018-04-17T17:20:52.789	 countingOfZeroElements;	
2018-04-17T17:20:52.789	 printArray;	
2018-04-17T17:20:52.789	 addElement	 param = 2;
2018-04-17T17:20:52.789	 doubleTheArray;
2018-04-17T17:20:52.789	 countingOfZeroElements;	
2018-04-17T17:20:52.789	 printArray;	
2018-04-17T17:20:52.789	 bubbleSort;
2018-04-17T17:20:52.789	 printArray;	
2018-04-17T17:21:59.259	 addElement	 param = 145;
2018-04-17T17:21:59.259	 doubleTheArray;
2018-04-17T17:21:59.259	 countingOfZeroElements;	
2018-04-17T17:21:59.259	 printArray;	
2018-04-17T17:21:59.259	 bubbleSort;
2018-04-17T17:21:59.259	 printArray;	
2018-04-18T06:49:27.633	 addElement	 param = 13;
2018-04-18T06:49:27.633	 doubleTheArray;
2018-04-18T06:49:27.633	 countingOfZeroElements;	
2018-04-18T06:49:27.633	 printArray;	
2018-04-18T06:49:27.633	 changeElementByIndex	 param = index:[0]; new element:[15];
2018-04-18T06:49:27.633	 printArray;	
2018-04-18T06:49:27.633	 bubbleSort;
2018-04-18T06:49:27.633	 printArray;	
2018-04-18T07:03:47.373	 addElement	 param = 13;
2018-04-18T07:03:47.373	 doubleTheArray;
2018-04-18T07:03:47.373	 countingOfZeroElements;	
2018-04-18T07:03:47.373	 printArray;	
2018-04-18T09:03:45.762	 printArray;	
2018-04-18T09:08:57.540	 bubbleSort;
2018-04-18T09:08:57.540	 printArray;	
2018-04-18T09:29:50.701	 addElement	 param = 5;
2018-04-18T09:29:50.701	 doubleTheArray;
2018-04-18T09:29:50.701	 countingOfZeroElements;	
2018-04-18T09:29:50.701	 printArray;	
2018-04-18T09:29:50.701	 bubbleSort;
2018-04-18T09:29:50.701	 printArray;	
2018-04-19T15:53:49.244	 addElement	 param = 13;
2018-04-19T15:53:49.244	 doubleTheArray;
2018-04-19T15:53:49.244	 countingOfZeroElements;
2018-04-19T15:53:49.244	 printArray;
2018-04-19T15:53:49.244	 bubbleSort;
2018-04-19T15:53:49.244	 printArray;
