1)- Создать интерфейс Calculatable +
  - с методом calculateSquare и default метод print, который печатает название фигуры. +
  - Создать абстрактный класс Figure с полями(длина стороны, высота), +
  - который реализует интерфейс Calculatable. +
  - Создать классы Triangle, +
  - Parallelogram, +
  - Romb. +
  - В классах наследниках переопределить метод calculateSquare, для расчета площади. +++
  - Протестировать функционал.

2)  public void processing(String author1, String author2,
                              String author3, String author4,
                              int countOfpages, String nameBook,
                              Boolean isUpdated, int year, int volume ) {
   //        do something with book
       }

       public void processing(String author1, String author2,
                              String author3, String author4,
                              int startPage, int endPage,
                              String nameArticle,
                              Boolean isUpdated, int year, int volume ) {


   //        do something with article

   //        Заменить параметры на класс Reference, предложить рефакторинг
       }

       )  public void processing(Book book) {
          //        do something with book
              }

              public void processing(Article article) {


          //        do something with article

          //        Заменить параметры на класс Reference, предложить рефакторинг
              }

